Airbnb Data Analysis
…
number_of_reviews : Number of Reviews

last_review : Latest Review

reviews_per_month : Number of Reviews per Month

calculated_host_listings_count : Amounts of Listing per Host

availability_365 : Number of Days when Listing is Available for Booking

data$last_review<-as.POSIXct(data$last_review,format="%Y-%m-%d")
data1 <- data %>% mutate(reviews_per_month=ifelse(is.na(reviews_per_month), 0, reviews_per_month))
data1

## # A tibble: 48,895 x 16
##       id name  host_id host_name neighbourhood_g~ neighbourhood latitude
##    <dbl> <chr>   <dbl> <chr>     <chr>            <chr>            <dbl>
##  1  2539 Clea~    2787 John      Brooklyn         Kensington        40.6
##  2  2595 Skyl~    2845 Jennifer  Manhattan        Midtown           40.8
##  3  3647 THE ~    4632 Elisabeth Manhattan        Harlem            40.8
##  4  3831 Cozy~    4869 LisaRoxa~ Brooklyn         Clinton Hill      40.7
##  5  5022 Enti~    7192 Laura     Manhattan        East Harlem       40.8
##  6  5099 Larg~    7322 Chris     Manhattan        Murray Hill       40.7
##  7  5121 Blis~    7356 Garon     Brooklyn         Bedford-Stuy~     40.7
##  8  5178 Larg~    8967 Shunichi  Manhattan        Hell's Kitch~     40.8
##  9  5203 Cozy~    7490 MaryEllen Manhattan        Upper West S~     40.8
## 10  5238 Cute~    7549 Ben       Manhattan        Chinatown         40.7
## # ... with 48,885 more rows, and 9 more variables: longitude <dbl>,
## #   room_type <chr>, price <dbl>, minimum_nights <dbl>,
## #   number_of_reviews <dbl>, last_review <dttm>, reviews_per_month <dbl>,
## #   calculated_host_listings_count <dbl>, availability_365 <dbl>
…
